{
    "success": true,
    "data": {
        "devices": [
            {
                "id": 1,
                "ip": "192.168.1.1",
                "mac": "00:11:22:33:44:55",
                "hostname": "router.local",
                "type": "router",
                "vendor": "Cisco",
                "os": "IOS 15.1",
                "status": "active",
                "lastSeen": "2025-02-02T12:00:00Z",
                "openPorts": [
                    22,
                    80,
                    443
                ],
                "vulnerabilities": [
                    "CVE-2023-1234"
                ],
                "riskLevel": "medium"
            },
            {
                "id": 2,
                "ip": "192.168.1.100",
                "mac": "AA:BB:CC:DD:EE:FF",
                "hostname": "server-01",
                "type": "server",
                "vendor": "Dell",
                "os": "Ubuntu 20.04",
                "status": "active",
                "lastSeen": "2025-02-02T12:00:00Z",
                "openPorts": [
                    22,
                    80,
                    443,
                    3306
                ],
                "vulnerabilities": [
                    "CVE-2023-5678",
                    "CVE-2023-9012"
                ],
                "riskLevel": "high"
            }
        ],
        "pagination": {
            "page": 1,
            "limit": 100,
            "total": 247,
            "pages": 3
        }
    }
}