{
    "success": true,
    "data": {
        "scans": [
            {
                "id": 1,
                "name": "Network Discovery Scan",
                "type": "discovery",
                "target": "192.168.1.0/24",
                "status": "completed",
                "progress": 100,
                "startTime": "2025-02-02T10:00:00Z",
                "endTime": "2025-02-02T10:15:00Z",
                "devicesFound": 25,
                "vulnerabilitiesFound": 8
            },
            {
                "id": 2,
                "name": "Port Scan - Critical Servers",
                "type": "port_scan",
                "target": "192.168.1.100-110",
                "status": "running",
                "progress": 65,
                "startTime": "2025-02-02T11:30:00Z",
                "endTime": null,
                "devicesFound": 8,
                "vulnerabilitiesFound": 2
            }
        ],
        "pagination": {
            "page": 1,
            "limit": 10,
            "total": 45,
            "pages": 5
        }
    }
}