{
    "success": true,
    "data": {
        "vulnerabilities": [
            {
                "cveId": "CVE-2023-1234",
                "title": "Remote Code Execution in Apache HTTP Server",
                "severity": "critical",
                "cvssScore": 9.8,
                "status": "open",
                "affectedDevices": [
                    "192.168.1.100",
                    "192.168.1.105"
                ],
                "discoveryDate": "2025-02-01T10:00:00Z"
            },
            {
                "cveId": "CVE-2023-5678",
                "title": "SQL Injection in MySQL",
                "severity": "high",
                "cvssScore": 8.1,
                "status": "in_progress",
                "affectedDevices": [
                    "192.168.1.100"
                ],
                "discoveryDate": "2025-02-02T08:30:00Z"
            },
            {
                "cveId": "CVE-2023-9012",
                "title": "Cross-Site Scripting in Web Panel",
                "severity": "medium",
                "cvssScore": 6.5,
                "status": "patched",
                "affectedDevices": [
                    "192.168.1.101"
                ],
                "discoveryDate": "2025-01-28T14:20:00Z"
            }
        ],
        "pagination": {
            "page": 1,
            "limit": 50,
            "total": 300,
            "pages": 6
        }
    }
}